Toyota,Yaris,2019,17000000,Amarillo
Nissan,Sentra,2019,21000000,Azul
Toyota,Yaris,2019,17000000,Amarillo
Toyota,Corolla,2019,10000000,Amarillo
Toyota,Corolla,2019,1000000,Azul
Toyota,Corolla,2019,20000000,Rojo
